<?xml version="1.0" encoding="UTF-8" standalone="no"?>
<!-- Created with Inkscape (http://www.inkscape.org/) -->

<svg
   xmlns:dc="http://purl.org/dc/elements/1.1/"
   xmlns:cc="http://creativecommons.org/ns#"
   xmlns:rdf="http://www.w3.org/1999/02/22-rdf-syntax-ns#"
   xmlns:svg="http://www.w3.org/2000/svg"
   xmlns="http://www.w3.org/2000/svg"
   xmlns:sodipodi="http://sodipodi.sourceforge.net/DTD/sodipodi-0.dtd"
   xmlns:inkscape="http://www.inkscape.org/namespaces/inkscape"
   width="210mm"
   height="297mm"
   viewBox="0 0 210 297"
   version="1.1"
   id="svg901"
   inkscape:version="0.92.2 (5c3e80d, 2017-08-06)"
   sodipodi:docname="org_userpage.svg">
  <defs
     id="defs895" />
  <sodipodi:namedview
     id="base"
     pagecolor="#ffffff"
     bordercolor="#666666"
     borderopacity="1.0"
     inkscape:pageopacity="0.0"
     inkscape:pageshadow="2"
     inkscape:zoom="0.98994949"
     inkscape:cx="281.05364"
     inkscape:cy="856.83901"
     inkscape:document-units="mm"
     inkscape:current-layer="layer1"
     showgrid="false"
     inkscape:window-width="1366"
     inkscape:window-height="704"
     inkscape:window-x="0"
     inkscape:window-y="27"
     inkscape:window-maximized="1" />
  <metadata
     id="metadata898">
    <rdf:RDF>
      <cc:Work
         rdf:about="">
        <dc:format>image/svg+xml</dc:format>
        <dc:type
           rdf:resource="http://purl.org/dc/dcmitype/StillImage" />
        <dc:title />
      </cc:Work>
    </rdf:RDF>
  </metadata>
  <g
     inkscape:label="Layer 1"
     inkscape:groupmode="layer"
     id="layer1">
    <rect
       style="fill:#ffffff;fill-opacity:1;stroke:#000000;stroke-width:1;stroke-miterlimit:4;stroke-dasharray:none;stroke-opacity:1"
       id="rect815"
       width="195.41368"
       height="117.55059"
       x="8.875926"
       y="8.4185638" />
    <text
       xml:space="preserve"
       style="font-style:normal;font-weight:normal;font-size:10.58333302px;line-height:1.25;font-family:sans-serif;letter-spacing:0px;word-spacing:0px;fill:#000000;fill-opacity:1;stroke:none;stroke-width:0.26458332"
       x="13.411643"
       y="20.135815"
       id="text838"><tspan
         sodipodi:role="line"
         id="tspan836"
         x="13.411643"
         y="20.135815"
         style="font-size:8.46666622px;stroke-width:0.26458332">Organization userpage</tspan></text>
    <text
       xml:space="preserve"
       style="font-style:normal;font-weight:normal;font-size:10.58333302px;line-height:1.25;font-family:sans-serif;letter-spacing:0px;word-spacing:0px;fill:#000000;fill-opacity:1;stroke:none;stroke-width:0.26458332"
       x="23.070488"
       y="92.278023"
       id="text1000"><tspan
         sodipodi:role="line"
         id="tspan998"
         x="23.070488"
         y="101.64179"
         style="font-size:6.3499999px;stroke-width:0.26458332" /></text>
    <text
       xml:space="preserve"
       style="font-style:normal;font-weight:normal;font-size:10.58333302px;line-height:1.25;font-family:sans-serif;letter-spacing:0px;word-spacing:0px;fill:#000000;fill-opacity:1;stroke:none;stroke-width:0.26458332"
       x="21.558586"
       y="80.4851"
       id="text1004"><tspan
         sodipodi:role="line"
         id="tspan1002"
         x="21.558586"
         y="89.848869"
         style="font-size:6.3499999px;stroke-width:0.26458332" /></text>
    <g
       transform="translate(-0.76246563,-0.75256763)"
       id="g6409">
      <rect
         style="fill:#ffffff;fill-opacity:1;stroke:#000000;stroke-width:0.54672146;stroke-miterlimit:4;stroke-dasharray:none;stroke-opacity:1"
         id="rect5336"
         width="25.668953"
         height="8.9075327"
         x="169.33174"
         y="13.182198" />
      <text
         xml:space="preserve"
         style="font-style:normal;font-weight:normal;font-size:10.58333302px;line-height:1.25;font-family:sans-serif;letter-spacing:0px;word-spacing:0px;fill:#000000;fill-opacity:1;stroke:none;stroke-width:0.26458332"
         x="172.63686"
         y="19.499317"
         id="text5358"><tspan
           sodipodi:role="line"
           id="tspan5356"
           x="172.63686"
           y="19.499317"
           style="font-size:4.93888903px;stroke-width:0.26458332">Signout</tspan></text>
    </g>
    <g
       transform="translate(1.7230084,-2.0045203)"
       id="g5363">
      <rect
         style="fill:#ffffff;fill-opacity:1;stroke:#000000;stroke-width:0.62660891;stroke-miterlimit:4;stroke-dasharray:none;stroke-opacity:1"
         id="rect5282-2"
         width="33.892242"
         height="8.8618851"
         x="127.26003"
         y="14.475113" />
      <text
         xml:space="preserve"
         style="font-style:normal;font-weight:normal;font-size:10.58333302px;line-height:1.25;font-family:sans-serif;letter-spacing:0px;word-spacing:0px;fill:#000000;fill-opacity:1;stroke:none;stroke-width:0.26458332"
         x="131.638"
         y="20.774782"
         id="text1004-3-1"><tspan
           sodipodi:role="line"
           id="tspan1002-6-2"
           x="131.638"
           y="20.774782"
           style="font-size:4.93888903px;stroke-width:0.26458332">Edit profile</tspan></text>
    </g>
    <text
       xml:space="preserve"
       style="font-style:normal;font-weight:normal;font-size:10.58333302px;line-height:1.25;font-family:sans-serif;letter-spacing:0px;word-spacing:0px;fill:#000000;fill-opacity:1;stroke:none;stroke-width:0.26458332"
       x="13.980256"
       y="32.032333"
       id="text1004-3"><tspan
         sodipodi:role="line"
         id="tspan1002-6"
         x="13.980256"
         y="32.032333"
         style="font-size:6.3499999px;stroke-width:0.26458332">Name</tspan></text>
    <rect
       style="fill:#ffffff;fill-opacity:1;stroke:#000000;stroke-width:0.5;stroke-miterlimit:4;stroke-dasharray:none;stroke-opacity:1"
       id="rect1668"
       width="64.144684"
       height="74.300934"
       x="14.432554"
       y="36.946751" />
    <rect
       style="fill:#ffffff;fill-opacity:1;stroke:#000000;stroke-width:0.51576614;stroke-miterlimit:4;stroke-dasharray:none;stroke-opacity:1"
       id="rect1672"
       width="48.570229"
       height="14.910197"
       x="90.423256"
       y="36.643593" />
    <rect
       style="fill:#ffffff;fill-opacity:1;stroke:#000000;stroke-width:0.5421735;stroke-miterlimit:4;stroke-dasharray:none;stroke-opacity:1"
       id="rect1674"
       width="50.277218"
       height="9.3930016"
       x="149.65967"
       y="36.660194" />
    <text
       id="text1678"
       y="43.144844"
       x="15.038589"
       style="font-style:normal;font-weight:normal;font-size:10.58333302px;line-height:1.25;font-family:sans-serif;letter-spacing:0px;word-spacing:0px;fill:#000000;fill-opacity:1;stroke:none;stroke-width:0.26458332"
       xml:space="preserve"><tspan
         style="font-size:6.3499999px;stroke-width:0.26458332"
         y="43.144844"
         x="15.038589"
         id="tspan1676"
         sodipodi:role="line">Your current donors</tspan></text>
    <text
       xml:space="preserve"
       style="font-style:normal;font-weight:normal;font-size:10.58333302px;line-height:1.25;font-family:sans-serif;letter-spacing:0px;word-spacing:0px;fill:#000000;fill-opacity:1;stroke:none;stroke-width:0.26458332"
       x="17.43177"
       y="52.090443"
       id="text1004-3-36"><tspan
         sodipodi:role="line"
         id="tspan1002-6-0"
         x="17.43177"
         y="52.090443"
         style="font-size:5.64444447px;stroke-width:0.26458332">Donor 1:   __________</tspan></text>
    <text
       id="text1690"
       y="60.02795"
       x="17.43177"
       style="font-style:normal;font-weight:normal;font-size:10.58333302px;line-height:1.25;font-family:sans-serif;letter-spacing:0px;word-spacing:0px;fill:#000000;fill-opacity:1;stroke:none;stroke-width:0.26458332"
       xml:space="preserve"><tspan
         style="font-size:5.64444447px;stroke-width:0.26458332"
         y="60.02795"
         x="17.43177"
         id="tspan1688"
         sodipodi:role="line">Donor 2:   __________</tspan></text>
    <text
       xml:space="preserve"
       style="font-style:normal;font-weight:normal;font-size:10.58333302px;line-height:1.25;font-family:sans-serif;letter-spacing:0px;word-spacing:0px;fill:#000000;fill-opacity:1;stroke:none;stroke-width:0.26458332"
       x="17.43177"
       y="67.436287"
       id="text1694"><tspan
         sodipodi:role="line"
         id="tspan1692"
         x="17.43177"
         y="67.436287"
         style="font-size:5.64444447px;stroke-width:0.26458332">Donor 3:   __________</tspan></text>
    <text
       id="text1698"
       y="100.77382"
       x="17.43177"
       style="font-style:normal;font-weight:normal;font-size:10.58333302px;line-height:1.25;font-family:sans-serif;letter-spacing:0px;word-spacing:0px;fill:#000000;fill-opacity:1;stroke:none;stroke-width:0.26458332"
       xml:space="preserve"><tspan
         style="font-size:5.64444447px;stroke-width:0.26458332"
         y="100.77382"
         x="17.43177"
         id="tspan1696"
         sodipodi:role="line">     Total:   __________</tspan></text>
    <text
       xml:space="preserve"
       style="font-style:normal;font-weight:normal;font-size:10.58333302px;line-height:1.25;font-family:sans-serif;letter-spacing:0px;word-spacing:0px;fill:#000000;fill-opacity:1;stroke:none;stroke-width:0.26458332"
       x="90.985947"
       y="43.623772"
       id="text1706"><tspan
         sodipodi:role="line"
         x="90.985947"
         y="43.623772"
         style="font-size:5.64444447px;stroke-width:0.26458332"
         id="tspan1708">Send notification</tspan></text>
    <text
       id="text1714"
       y="49.444611"
       x="101.04013"
       style="font-style:normal;font-weight:normal;font-size:10.58333302px;line-height:1.25;font-family:sans-serif;letter-spacing:0px;word-spacing:0px;fill:#000000;fill-opacity:1;stroke:none;stroke-width:0.26458332"
       xml:space="preserve"><tspan
         id="tspan1712"
         style="font-size:5.64444447px;stroke-width:0.26458332"
         y="49.444611"
         x="101.04013"
         sodipodi:role="line">to donors</tspan></text>
    <text
       xml:space="preserve"
       style="font-style:normal;font-weight:normal;font-size:10.58333302px;line-height:1.25;font-family:sans-serif;letter-spacing:0px;word-spacing:0px;fill:#000000;fill-opacity:1;stroke:none;stroke-width:0.26458332"
       x="151.83977"
       y="43.094604"
       id="text1718"><tspan
         sodipodi:role="line"
         id="tspan1716"
         x="151.83977"
         y="43.094604"
         style="font-size:5.64444447px;stroke-width:0.26458332">Create new post</tspan></text>
  </g>
</svg>
