<?xml version="1.0" encoding="UTF-8" standalone="no"?>
<!-- Created with Inkscape (http://www.inkscape.org/) -->

<svg
   xmlns:dc="http://purl.org/dc/elements/1.1/"
   xmlns:cc="http://creativecommons.org/ns#"
   xmlns:rdf="http://www.w3.org/1999/02/22-rdf-syntax-ns#"
   xmlns:svg="http://www.w3.org/2000/svg"
   xmlns="http://www.w3.org/2000/svg"
   xmlns:sodipodi="http://sodipodi.sourceforge.net/DTD/sodipodi-0.dtd"
   xmlns:inkscape="http://www.inkscape.org/namespaces/inkscape"
   width="210mm"
   height="297mm"
   viewBox="0 0 210 297"
   version="1.1"
   id="svg5532"
   inkscape:version="0.92.2 (5c3e80d, 2017-08-06)"
   sodipodi:docname="org_edit_profile.svg">
  <defs
     id="defs5526" />
  <sodipodi:namedview
     id="base"
     pagecolor="#ffffff"
     bordercolor="#666666"
     borderopacity="1.0"
     inkscape:pageopacity="0.0"
     inkscape:pageshadow="2"
     inkscape:zoom="0.7"
     inkscape:cx="411.48925"
     inkscape:cy="904.39352"
     inkscape:document-units="mm"
     inkscape:current-layer="layer1"
     showgrid="false"
     inkscape:window-width="1366"
     inkscape:window-height="704"
     inkscape:window-x="0"
     inkscape:window-y="27"
     inkscape:window-maximized="1" />
  <metadata
     id="metadata5529">
    <rdf:RDF>
      <cc:Work
         rdf:about="">
        <dc:format>image/svg+xml</dc:format>
        <dc:type
           rdf:resource="http://purl.org/dc/dcmitype/StillImage" />
        <dc:title />
      </cc:Work>
    </rdf:RDF>
  </metadata>
  <g
     inkscape:label="Layer 1"
     inkscape:groupmode="layer"
     id="layer1">
    <rect
       style="fill:#ffffff;fill-opacity:1;stroke:#000000;stroke-width:1;stroke-miterlimit:4;stroke-dasharray:none;stroke-opacity:1"
       id="rect815"
       width="195.41368"
       height="117.55059"
       x="9.6383972"
       y="9.171133" />
    <text
       xml:space="preserve"
       style="font-style:normal;font-weight:normal;font-size:10.58333302px;line-height:1.25;font-family:sans-serif;letter-spacing:0px;word-spacing:0px;fill:#000000;fill-opacity:1;stroke:none;stroke-width:0.26458332"
       x="14.174112"
       y="20.888384"
       id="text838"><tspan
         sodipodi:role="line"
         id="tspan836"
         x="14.174112"
         y="20.888384"
         style="font-size:8.46666622px;stroke-width:0.26458332">Organization edit profile</tspan></text>
    <text
       xml:space="preserve"
       style="font-style:normal;font-weight:normal;font-size:10.58333302px;line-height:1.25;font-family:sans-serif;letter-spacing:0px;word-spacing:0px;fill:#000000;fill-opacity:1;stroke:none;stroke-width:0.26458332"
       x="23.832954"
       y="93.030602"
       id="text1000"><tspan
         sodipodi:role="line"
         id="tspan998"
         x="23.832954"
         y="102.39437"
         style="font-size:6.3499999px;stroke-width:0.26458332" /></text>
    <text
       xml:space="preserve"
       style="font-style:normal;font-weight:normal;font-size:10.58333302px;line-height:1.25;font-family:sans-serif;letter-spacing:0px;word-spacing:0px;fill:#000000;fill-opacity:1;stroke:none;stroke-width:0.26458332"
       x="22.321051"
       y="81.237663"
       id="text1004"><tspan
         sodipodi:role="line"
         id="tspan1002"
         x="22.321051"
         y="90.601433"
         style="font-size:6.3499999px;stroke-width:0.26458332" /></text>
    <g
       id="g6409">
      <rect
         style="fill:#ffffff;fill-opacity:1;stroke:#000000;stroke-width:0.54672146;stroke-miterlimit:4;stroke-dasharray:none;stroke-opacity:1"
         id="rect5336"
         width="25.668953"
         height="8.9075327"
         x="169.33174"
         y="13.182198" />
      <text
         xml:space="preserve"
         style="font-style:normal;font-weight:normal;font-size:10.58333302px;line-height:1.25;font-family:sans-serif;letter-spacing:0px;word-spacing:0px;fill:#000000;fill-opacity:1;stroke:none;stroke-width:0.26458332"
         x="172.63686"
         y="19.499317"
         id="text5358"><tspan
           sodipodi:role="line"
           id="tspan5356"
           x="172.63686"
           y="19.499317"
           style="font-size:4.93888903px;stroke-width:0.26458332">Signout</tspan></text>
    </g>
    <text
       xml:space="preserve"
       style="font-style:normal;font-weight:normal;font-size:10.58333302px;line-height:1.25;font-family:sans-serif;letter-spacing:0px;word-spacing:0px;fill:#000000;fill-opacity:1;stroke:none;stroke-width:0.26458332"
       x="27.001524"
       y="61.823082"
       id="text950"><tspan
         sodipodi:role="line"
         id="tspan948"
         x="27.001524"
         y="61.823082"
         style="font-size:6.3499999px;stroke-width:0.26458332">email</tspan></text>
    <text
       xml:space="preserve"
       style="font-style:normal;font-weight:normal;font-size:10.58333302px;line-height:1.25;font-family:sans-serif;letter-spacing:0px;word-spacing:0px;fill:#000000;fill-opacity:1;stroke:none;stroke-width:0.26458332"
       x="14.964569"
       y="74.320137"
       id="text950-2"><tspan
         sodipodi:role="line"
         id="tspan948-7"
         x="14.964569"
         y="74.320137"
         style="font-size:6.3499999px;stroke-width:0.26458332">password</tspan></text>
    <rect
       style="fill:#ffffff;fill-opacity:1;stroke:#000000;stroke-width:1;stroke-miterlimit:4;stroke-dasharray:none;stroke-opacity:1"
       id="rect984"
       width="50.648811"
       height="9.0714283"
       x="49.3022"
       y="55.019485" />
    <rect
       y="68.77784"
       x="49.3022"
       height="9.0714283"
       width="50.648811"
       id="rect986"
       style="fill:#ffffff;fill-opacity:1;stroke:#000000;stroke-width:1;stroke-miterlimit:4;stroke-dasharray:none;stroke-opacity:1" />
    <text
       xml:space="preserve"
       style="font-style:normal;font-weight:normal;font-size:10.58333302px;line-height:1.25;font-family:sans-serif;letter-spacing:0px;word-spacing:0px;fill:#000000;fill-opacity:1;stroke:none;stroke-width:0.26458332"
       x="26.651949"
       y="34.041832"
       id="text950-3"><tspan
         sodipodi:role="line"
         id="tspan948-6"
         x="26.651949"
         y="34.041832"
         style="font-size:6.3499999px;stroke-width:0.26458332">name</tspan></text>
    <rect
       style="fill:#ffffff;fill-opacity:1;stroke:#000000;stroke-width:1;stroke-miterlimit:4;stroke-dasharray:none;stroke-opacity:1"
       id="rect984-7"
       width="50.648811"
       height="9.0714283"
       x="48.952625"
       y="27.238235" />
    <text
       id="text6363"
       y="48.920132"
       x="107.56873"
       style="font-style:normal;font-weight:normal;font-size:10.58333302px;line-height:1.25;font-family:sans-serif;letter-spacing:0px;word-spacing:0px;fill:#000000;fill-opacity:1;stroke:none;stroke-width:0.26458332"
       xml:space="preserve"><tspan
         style="font-size:6.3499999px;stroke-width:0.26458332"
         y="48.920132"
         x="107.56873"
         id="tspan6361"
         sodipodi:role="line">address</tspan></text>
    <rect
       style="fill:#ffffff;fill-opacity:1;stroke:#000000;stroke-width:1;stroke-miterlimit:4;stroke-dasharray:none;stroke-opacity:1"
       id="rect6365"
       width="50.648811"
       height="9.0714283"
       x="137.67303"
       y="42.848663" />
    <g
       transform="translate(-72.585711,92.899898)"
       id="g6409-2">
      <rect
         style="fill:#ffffff;fill-opacity:1;stroke:#000000;stroke-width:0.54672146;stroke-miterlimit:4;stroke-dasharray:none;stroke-opacity:1"
         id="rect5336-3"
         width="25.668953"
         height="8.9075327"
         x="169.33174"
         y="13.182198" />
      <text
         xml:space="preserve"
         style="font-style:normal;font-weight:normal;font-size:10.58333302px;line-height:1.25;font-family:sans-serif;letter-spacing:0px;word-spacing:0px;fill:#000000;fill-opacity:1;stroke:none;stroke-width:0.26458332"
         x="172.63686"
         y="19.499317"
         id="text5358-7"><tspan
           sodipodi:role="line"
           id="tspan5356-5"
           x="172.63686"
           y="19.499317"
           style="font-size:4.93888903px;stroke-width:0.26458332">Update</tspan></text>
    </g>
    <text
       id="text849"
       y="48.064735"
       x="25.414022"
       style="font-style:normal;font-weight:normal;font-size:10.58333302px;line-height:1.25;font-family:sans-serif;letter-spacing:0px;word-spacing:0px;fill:#000000;fill-opacity:1;stroke:none;stroke-width:0.26458332"
       xml:space="preserve"><tspan
         style="font-size:6.3499999px;stroke-width:0.26458332"
         y="48.064735"
         x="25.414022"
         id="tspan847"
         sodipodi:role="line">owner</tspan></text>
    <rect
       y="41.261139"
       x="49.3022"
       height="9.0714283"
       width="50.648811"
       id="rect851"
       style="fill:#ffffff;fill-opacity:1;stroke:#000000;stroke-width:1;stroke-miterlimit:4;stroke-dasharray:none;stroke-opacity:1" />
    <text
       id="text855"
       y="34.041832"
       x="26.651949"
       style="font-style:normal;font-weight:normal;font-size:10.58333302px;line-height:1.25;font-family:sans-serif;letter-spacing:0px;word-spacing:0px;fill:#000000;fill-opacity:1;stroke:none;stroke-width:0.26458332"
       xml:space="preserve"><tspan
         style="font-size:6.3499999px;stroke-width:0.26458332"
         y="34.041832"
         x="26.651949"
         id="tspan853"
         sodipodi:role="line">name</tspan></text>
    <rect
       y="27.238235"
       x="137.85254"
       height="9.0714283"
       width="50.648811"
       id="rect857"
       style="fill:#ffffff;fill-opacity:1;stroke:#000000;stroke-width:1;stroke-miterlimit:4;stroke-dasharray:none;stroke-opacity:1" />
    <text
       xml:space="preserve"
       style="font-style:normal;font-weight:normal;font-size:10.58333302px;line-height:1.25;font-family:sans-serif;letter-spacing:0px;word-spacing:0px;fill:#000000;fill-opacity:1;stroke:none;stroke-width:0.26458332"
       x="108.67288"
       y="34.041832"
       id="text861"><tspan
         sodipodi:role="line"
         id="tspan859"
         x="108.67288"
         y="34.041832"
         style="font-size:6.3499999px;stroke-width:0.26458332">Website</tspan></text>
    <g
       id="g893">
      <rect
         style="fill:#ffffff;fill-opacity:1;stroke:#000000;stroke-width:0.49800029;stroke-miterlimit:4;stroke-dasharray:none;stroke-opacity:1"
         id="rect5336-6"
         width="21.181959"
         height="8.956254"
         x="142.9429"
         y="13.197468" />
      <text
         xml:space="preserve"
         style="font-style:normal;font-weight:normal;font-size:10.58333302px;line-height:1.25;font-family:sans-serif;letter-spacing:0px;word-spacing:0px;fill:#000000;fill-opacity:1;stroke:none;stroke-width:0.26458332"
         x="146.27237"
         y="19.538948"
         id="text5358-75"><tspan
           sodipodi:role="line"
           id="tspan5356-3"
           x="146.27237"
           y="19.538948"
           style="font-size:4.93888903px;stroke-width:0.26458332">Home</tspan></text>
    </g>
    <rect
       y="56.864422"
       x="137.93045"
       height="21.029821"
       width="50.133991"
       id="rect860"
       style="fill:#ffffff;fill-opacity:1;stroke:#000000;stroke-width:1;stroke-miterlimit:4;stroke-dasharray:none;stroke-opacity:1" />
    <rect
       style="fill:#ffffff;fill-opacity:1;stroke:#000000;stroke-width:1;stroke-miterlimit:4;stroke-dasharray:none;stroke-opacity:1"
       id="rect1678"
       width="46.302174"
       height="9.638483"
       x="139.1897"
       y="79.758148" />
    <text
       id="text864"
       y="86.415382"
       x="140.45267"
       style="font-style:normal;font-weight:normal;font-size:10.58333302px;line-height:1.25;font-family:sans-serif;letter-spacing:0px;word-spacing:0px;fill:#000000;fill-opacity:1;stroke:none;stroke-width:0.26458332"
       xml:space="preserve"><tspan
         style="font-size:6.3499999px;stroke-width:0.26458332"
         y="86.415382"
         x="140.45267"
         id="tspan862"
         sodipodi:role="line">Add/Edit Tags</tspan></text>
    <text
       xml:space="preserve"
       style="font-style:normal;font-weight:normal;font-size:10.58333302px;line-height:1.25;font-family:sans-serif;letter-spacing:0px;word-spacing:0px;fill:#000000;fill-opacity:1;stroke:none;stroke-width:0.26458332"
       x="140.07469"
       y="64.114792"
       id="text858"><tspan
         sodipodi:role="line"
         id="tspan856"
         x="140.07469"
         y="64.114792"
         style="font-size:6.3499999px;stroke-width:0.26458332">Tag1</tspan></text>
    <rect
       style="fill:#ffffff;fill-opacity:1;stroke:#000000;stroke-width:1;stroke-miterlimit:4;stroke-dasharray:none;stroke-opacity:1"
       id="rect2460"
       width="96.594421"
       height="17.597397"
       x="16.502012"
       y="81.712769" />
    <text
       id="text2464"
       y="92.311821"
       x="49.889599"
       style="font-style:normal;font-weight:normal;font-size:10.58333302px;line-height:1.25;font-family:sans-serif;letter-spacing:0px;word-spacing:0px;fill:#000000;fill-opacity:1;stroke:none;stroke-width:0.26458332"
       xml:space="preserve"><tspan
         style="font-size:6.3499999px;stroke-width:0.26458332"
         y="92.311821"
         x="49.889599"
         id="tspan2462"
         sodipodi:role="line">Description</tspan></text>
    <text
       id="text997"
       y="64.114792"
       x="156.47864"
       style="font-style:normal;font-weight:normal;font-size:10.58333302px;line-height:1.25;font-family:sans-serif;letter-spacing:0px;word-spacing:0px;fill:#000000;fill-opacity:1;stroke:none;stroke-width:0.26458332"
       xml:space="preserve"><tspan
         style="font-size:6.3499999px;stroke-width:0.26458332"
         y="64.114792"
         x="156.47864"
         id="tspan995"
         sodipodi:role="line">Tag2</tspan></text>
  </g>
</svg>
