<?xml version="1.0" encoding="UTF-8" standalone="no"?>
<!-- Created with Inkscape (http://www.inkscape.org/) -->

<svg
   xmlns:dc="http://purl.org/dc/elements/1.1/"
   xmlns:cc="http://creativecommons.org/ns#"
   xmlns:rdf="http://www.w3.org/1999/02/22-rdf-syntax-ns#"
   xmlns:svg="http://www.w3.org/2000/svg"
   xmlns="http://www.w3.org/2000/svg"
   xmlns:sodipodi="http://sodipodi.sourceforge.net/DTD/sodipodi-0.dtd"
   xmlns:inkscape="http://www.inkscape.org/namespaces/inkscape"
   width="210mm"
   height="297mm"
   viewBox="0 0 210 297"
   version="1.1"
   id="svg8"
   inkscape:version="0.92.2 (5c3e80d, 2017-08-06)"
   sodipodi:docname="home.svg">
  <defs
     id="defs2" />
  <sodipodi:namedview
     id="base"
     pagecolor="#ffffff"
     bordercolor="#666666"
     borderopacity="1.0"
     inkscape:pageopacity="0.0"
     inkscape:pageshadow="2"
     inkscape:zoom="0.7"
     inkscape:cx="396.1272"
     inkscape:cy="762.67326"
     inkscape:document-units="mm"
     inkscape:current-layer="layer1"
     showgrid="false"
     inkscape:window-width="1366"
     inkscape:window-height="704"
     inkscape:window-x="0"
     inkscape:window-y="27"
     inkscape:window-maximized="1" />
  <metadata
     id="metadata5">
    <rdf:RDF>
      <cc:Work
         rdf:about="">
        <dc:format>image/svg+xml</dc:format>
        <dc:type
           rdf:resource="http://purl.org/dc/dcmitype/StillImage" />
        <dc:title />
      </cc:Work>
    </rdf:RDF>
  </metadata>
  <g
     inkscape:label="Layer 1"
     inkscape:groupmode="layer"
     id="layer1">
    <rect
       style="fill:#ffffff;fill-opacity:1;stroke:#000000;stroke-width:1;stroke-miterlimit:4;stroke-dasharray:none;stroke-opacity:1"
       id="rect815"
       width="195.41368"
       height="117.55059"
       x="7.1815472"
       y="25.235119" />
    <text
       xml:space="preserve"
       style="font-style:normal;font-weight:normal;font-size:10.58333302px;line-height:1.25;font-family:sans-serif;letter-spacing:0px;word-spacing:0px;fill:#000000;fill-opacity:1;stroke:none;stroke-width:0.26458332"
       x="11.717261"
       y="36.952377"
       id="text838"><tspan
         sodipodi:role="line"
         id="tspan836"
         x="11.717261"
         y="36.952377"
         style="font-size:8.46666622px;stroke-width:0.26458332">Donation Management Website Home Page</tspan></text>
    <g
       id="g975">
      <rect
         y="49.329372"
         x="14.040085"
         height="27.406733"
         width="61.802574"
         id="rect840"
         style="fill:#ffffff;fill-opacity:1;stroke:#000000;stroke-width:0.80755204;stroke-miterlimit:4;stroke-dasharray:none;stroke-opacity:1" />
      <text
         id="text844"
         y="57.363091"
         x="17.764881"
         style="font-style:normal;font-weight:normal;font-size:10.58333302px;line-height:1.25;font-family:sans-serif;letter-spacing:0px;word-spacing:0px;fill:#000000;fill-opacity:1;stroke:none;stroke-width:0.26458332"
         xml:space="preserve"><tspan
           style="font-size:6.35px;stroke-width:0.26458332"
           y="57.363091"
           x="17.764881"
           id="tspan842"
           sodipodi:role="line">Organization 1</tspan></text>
      <text
         id="text844-5"
         y="65.313728"
         x="17.142916"
         style="font-style:normal;font-weight:normal;font-size:10.58333302px;line-height:1.25;font-family:sans-serif;letter-spacing:0px;word-spacing:0px;fill:#000000;fill-opacity:1;stroke:none;stroke-width:0.26458332"
         xml:space="preserve"><tspan
           style="font-size:6.3499999px;stroke-width:0.26458332"
           y="65.313728"
           x="17.142916"
           id="tspan842-3"
           sodipodi:role="line">Description</tspan></text>
    </g>
    <g
       id="g982">
      <rect
         y="90.906754"
         x="14.077881"
         height="27.406733"
         width="61.802574"
         id="rect840-3"
         style="fill:#ffffff;fill-opacity:1;stroke:#000000;stroke-width:0.80755204;stroke-miterlimit:4;stroke-dasharray:none;stroke-opacity:1" />
      <text
         id="text844-6"
         y="99.180405"
         x="17.596489"
         style="font-style:normal;font-weight:normal;font-size:10.58333302px;line-height:1.25;font-family:sans-serif;letter-spacing:0px;word-spacing:0px;fill:#000000;fill-opacity:1;stroke:none;stroke-width:0.26458332"
         xml:space="preserve"><tspan
           style="font-size:6.3499999px;stroke-width:0.26458332"
           y="99.180405"
           x="17.596489"
           id="tspan842-7"
           sodipodi:role="line">Organization 2</tspan></text>
      <text
         id="text844-5-2"
         y="108.62981"
         x="17.175402"
         style="font-style:normal;font-weight:normal;font-size:10.58333302px;line-height:1.25;font-family:sans-serif;letter-spacing:0px;word-spacing:0px;fill:#000000;fill-opacity:1;stroke:none;stroke-width:0.26458332"
         xml:space="preserve"><tspan
           style="font-size:6.3499999px;stroke-width:0.26458332"
           y="108.62981"
           x="17.175402"
           id="tspan842-3-9"
           sodipodi:role="line">Description</tspan></text>
    </g>
    <rect
       style="fill:#ffffff;fill-opacity:1;stroke:#000000;stroke-width:1.0975858;stroke-miterlimit:4;stroke-dasharray:none;stroke-opacity:1"
       id="rect840-1"
       width="99.811462"
       height="83.558479"
       x="89.378494"
       y="50.168682" />
    <text
       xml:space="preserve"
       style="font-style:normal;font-weight:normal;font-size:10.58333302px;line-height:1.25;font-family:sans-serif;letter-spacing:0px;word-spacing:0px;fill:#000000;fill-opacity:1;stroke:none;stroke-width:0.26458332"
       x="109.6131"
       y="63.788689"
       id="text950"><tspan
         sodipodi:role="line"
         id="tspan948"
         x="109.6131"
         y="63.788689"
         style="font-size:6.3499999px;stroke-width:0.26458332">email</tspan></text>
    <text
       xml:space="preserve"
       style="font-style:normal;font-weight:normal;font-size:10.58333302px;line-height:1.25;font-family:sans-serif;letter-spacing:0px;word-spacing:0px;fill:#000000;fill-opacity:1;stroke:none;stroke-width:0.26458332"
       x="97.57618"
       y="75.227417"
       id="text950-2"><tspan
         sodipodi:role="line"
         id="tspan948-7"
         x="97.57618"
         y="75.227417"
         style="font-size:6.3499999px;stroke-width:0.26458332">password</tspan></text>
    <rect
       style="fill:#ffffff;fill-opacity:1;stroke:#000000;stroke-width:1;stroke-miterlimit:4;stroke-dasharray:none;stroke-opacity:1"
       id="rect984"
       width="50.648811"
       height="9.0714283"
       x="131.9137"
       y="56.985119" />
    <rect
       y="69.685127"
       x="131.9137"
       height="9.0714283"
       width="50.648811"
       id="rect986"
       style="fill:#ffffff;fill-opacity:1;stroke:#000000;stroke-width:1;stroke-miterlimit:4;stroke-dasharray:none;stroke-opacity:1" />
    <rect
       style="fill:#ffffff;fill-opacity:1;stroke:#000000;stroke-width:1;stroke-miterlimit:4;stroke-dasharray:none;stroke-opacity:1"
       id="rect988"
       width="32.505951"
       height="8.3154764"
       x="131.38445"
       y="95.311905" />
    <text
       xml:space="preserve"
       style="font-style:normal;font-weight:normal;font-size:10.58333302px;line-height:1.25;font-family:sans-serif;letter-spacing:0px;word-spacing:0px;fill:#000000;fill-opacity:1;stroke:none;stroke-width:0.26458332"
       x="138.41501"
       y="101.28394"
       id="text992"><tspan
         sodipodi:role="line"
         id="tspan990"
         x="138.41501"
         y="101.28394"
         style="font-size:6.3499999px;stroke-width:0.26458332">Login</tspan></text>
    <text
       id="text996"
       y="123.91077"
       x="129.85576"
       style="font-style:normal;font-weight:normal;font-size:10.58333302px;line-height:1.25;font-family:sans-serif;letter-spacing:0px;word-spacing:0px;fill:#000000;fill-opacity:1;stroke:none;stroke-width:0.26458332"
       xml:space="preserve"><tspan
         style="font-size:6.3499999px;stroke-width:0.26458332"
         y="123.91077"
         x="129.85576"
         id="tspan994"
         sodipodi:role="line">Registration</tspan></text>
    <text
       xml:space="preserve"
       style="font-style:normal;font-weight:normal;font-size:10.58333302px;line-height:1.25;font-family:sans-serif;letter-spacing:0px;word-spacing:0px;fill:#000000;fill-opacity:1;stroke:none;stroke-width:0.26458332"
       x="130.38446"
       y="112.79826"
       id="text1004"><tspan
         sodipodi:role="line"
         id="tspan1002"
         x="130.38446"
         y="112.79826"
         style="font-size:6.3499999px;stroke-width:0.26458332">Reset password</tspan></text>
    <rect
       style="fill:#ffffff;fill-opacity:1;stroke:#000000;stroke-width:1;stroke-miterlimit:4;stroke-dasharray:none;stroke-opacity:1"
       id="rect841"
       width="3.7797618"
       height="3.4017856"
       x="131.30888"
       y="85.408928" />
    <text
       id="text845"
       y="88.985764"
       x="137.26353"
       style="font-style:normal;font-weight:normal;font-size:10.58333302px;line-height:1.25;font-family:sans-serif;letter-spacing:0px;word-spacing:0px;fill:#000000;fill-opacity:1;stroke:none;stroke-width:0.26458332"
       xml:space="preserve"><tspan
         style="font-size:6.3499999px;stroke-width:0.26458332"
         y="88.985764"
         x="137.26353"
         id="tspan843"
         sodipodi:role="line">remember me</tspan></text>
  </g>
</svg>
